{
  "extends": [
    "tslint:latest",
    "tslint-config-prettier"
  ],
  "rules": {
    "variable-name": [
      true,
      "allow-leading-underscore"
    ],
    "import-spacing": true,
    "no-unused-expression": false,
    "semicolon": [
      true,
      "always",
      "ignore-bound-class-methods"
    ],
    "no-unnecessary-semicolons": false,
    "no-var-requires": false,
    "ordered-imports": false,
    "object-literal-sort-keys": false,
    "quotemark": [
      true,
      "single"
    ],
    "trailing-comma": false
  }
}
